<svg width="512" height="512" viewBox="0 0 512 512" fill="none" xmlns="http://www.w3.org/2000/svg">
<g clip-path="url(#clip0)">
<path d="M232.707 510.401L292.705 480.402C297.787 477.861 300.997 472.667 300.997 466.985V374.55L421.59 228.503C423.819 225.803 425.092 222.264 425.018 218.642V158.948C425.018 150.664 418.302 143.948 410.018 143.948H101.979C93.6951 143.948 86.9793 150.664 86.9793 158.948V218.946C86.9793 222.417 88.2742 225.944 90.4972 228.589L211 374.538V496.984C210.999 508.115 222.739 515.384 232.707 510.401V510.401ZM395.019 173.949V203.948C390.77 203.948 286.079 203.95 116.978 203.944V173.949H395.019ZM133.823 233.947C280.544 233.947 377.36 233.952 378.188 233.952L274.431 359.608C272.212 362.296 270.998 365.673 270.998 369.158V457.716L240.998 472.715V369.148C240.998 365.663 239.785 362.287 237.566 359.599L133.823 233.947Z" fill="black"/>
</g>
<defs>
<clipPath id="clip0">
<rect width="512" height="512" fill="white"/>
</clipPath>
</defs>
</svg>
